<?xml version="1.0" encoding="UTF-8" standalone="no"?>
<svg
   xmlns:dc="http://purl.org/dc/elements/1.1/"
   xmlns:cc="http://creativecommons.org/ns#"
   xmlns:rdf="http://www.w3.org/1999/02/22-rdf-syntax-ns#"
   xmlns:svg="http://www.w3.org/2000/svg"
   xmlns="http://www.w3.org/2000/svg"
   xmlns:sodipodi="http://sodipodi.sourceforge.net/DTD/sodipodi-0.dtd"
   xmlns:inkscape="http://www.inkscape.org/namespaces/inkscape"
   height="110"
   width="100"
   viewBox="0 0 100 110"
   id="svg2"
   version="1.1"
   inkscape:version="0.91 r13725"
   sodipodi:docname="euro.svg">
  <metadata
     id="metadata12">
    <rdf:RDF>
      <cc:Work
         rdf:about="">
        <dc:format>image/svg+xml</dc:format>
        <dc:type
           rdf:resource="http://purl.org/dc/dcmitype/StillImage" />
        <dc:title></dc:title>
      </cc:Work>
    </rdf:RDF>
  </metadata>
  <defs
     id="defs10" />
  <sodipodi:namedview
     pagecolor="#c76060"
     bordercolor="#666666"
     borderopacity="1"
     objecttolerance="10"
     gridtolerance="10"
     guidetolerance="10"
     inkscape:pageopacity="0"
     inkscape:pageshadow="2"
     inkscape:window-width="1161"
     inkscape:window-height="623"
     id="namedview8"
     showgrid="false"
     inkscape:zoom="4.2909091"
     inkscape:cx="50"
     inkscape:cy="55"
     inkscape:window-x="0"
     inkscape:window-y="0"
     inkscape:window-maximized="0"
     inkscape:current-layer="svg2" />
  <path
     d="M24.502 96.45L0 82.93l.173-27.797.174-27.796 24.826-13.67L49.993 0 72.16 12.19c12.19 6.71 23.437 12.924 24.997 13.816L100 27.63v55.293L75.323 96.476C61.753 103.934 50.28 110.02 49.83 110c-.45-.022-11.844-6.12-25.317-13.553zm-10.48-14.425c1.155-1.342.227-2.046-1.4-1.062-1.35.8-2.61.528-2.61-.572 0-.33 1.05-.61 2.332-.61 1.99 0 2.333-.22 2.333-1.48 0-1.94-1.193-3.02-3.333-3.02-.955 0-2.093.35-2.533.77-1.03 1-1.03 5.18 0 6.18 1.13 1.09 4.21.96 5.22-.21zm-3.844-4.327c.155-.44.677-.806 1.166-.806.49 0 1.014.352 1.167.792.17.484-.3.808-1.16.808-.86 0-1.33-.326-1.16-.805zm13.03 1.203c.163-2.92 0-3.61-.833-3.61-.755 0-1.044.67-1.044 2.5 0 1.43-.42 2.84-.99 3.29-1.17.94-1.51.33-1.81-3.21-.12-1.46-.53-2.25-1.17-2.25-.75 0-.93.73-.77 3.21.11 1.77.34 3.44.51 3.7.18.27 1.57.38 3.11.24l2.79-.24.2-3.61zm4.01 1.29c.115-1.34.63-2.55 1.164-2.75 1.722-.63 1.022-1.93-1.045-1.93-1.993 0-1.995.01-1.995 3.81 0 2.76.23 3.74.833 3.54.444-.14.916-1.34 1.03-2.66zm9.568 1.76c.67-.58 1.218-1.79 1.218-2.68 0-3.74-4.956-5.46-7.014-2.43-2.626 3.87 2.27 8.2 5.796 5.12zm-3.28-.68c-1.133-.39-1.062-3.82.084-4.24 1.134-.42 2.416.74 2.416 2.19 0 1.32-1.37 2.46-2.5 2.06zm7.83-.74c0-2.37 1.29-4.41 2.227-3.5.245.25.44 1.69.44 3.22 0 2.06.267 2.798 1 2.798.734 0 1-.735 1-2.783 0-1.53.196-2.976.438-3.21.94-.91 2.23 1.14 2.23 3.56 0 1.753.27 2.464.83 2.29 1.08-.34 1.49-5.59.51-6.53-.4-.396-2.97-.74-5.71-.775l-4.96-.054v3.33c0 1.833.2 3.52.45 3.762 1.03.99 1.56.277 1.56-2.07zm12.667-1.42c0-2.85-.23-3.85-.835-3.65-.867.27-1.516 5.11-.896 6.67.856 2.16 1.73.63 1.73-3.02zM58 77.85c0-4.147-.195-5.148-1-5.148-.8 0-1 .95-1 4.715 0 2.596.2 4.913.443 5.15 1.185 1.143 1.556.01 1.556-4.72zm4 0c0-4.147-.197-5.148-1-5.148-.8 0-1 .95-1 4.715 0 2.596.2 4.913.443 5.15 1.182 1.143 1.556.01 1.556-4.72zm3.865 1.08c.16-2.954 0-3.654-.833-3.654-.822 0-1.033.808-1.033 3.916 0 5.195 1.57 4.97 1.86-.268zm8.133 2.78c1.6-1.55 1.69-3.08.294-5.01-2.018-2.78-6.962-1.133-6.962 2.32 0 3.565 4.05 5.2 6.666 2.685zm-3.92-.825c-.977-.946-.955-2.586.052-3.556 1.11-1.08 1.71-.97 2.495.47 1.213 2.18-.878 4.71-2.555 3.08zm8.456-1c.11-1.473.49-2.683.844-2.683.356 0 .85-.075 1.127-.165.275-.088.65 1.122.833 2.684.178 1.56.725 2.97 1.2 3.13.667.21.822-.62.667-3.49l-.2-3.77-3.167-.06-3.166-.06v3.81c0 4.498 1.533 4.987 1.866.598zm12.444 2.07c1.444-1.394 1.038-2.318-1.516-3.422-1.168-.5-2.126-1.15-2.126-1.44 0-.75 1.84-.66 2.333.117.61.955 1.66.78 1.66-.28 0-1.17-2.28-1.887-4.38-1.38-1.16.28-1.62.84-1.62 1.94 0 1.203.53 1.714 2.39 2.31 1.7.54 2.19.96 1.68 1.45-.51.493-1.2.44-2.39-.176-2.06-1.064-3.18-.25-1.39 1.013 1.71 1.21 4.02 1.157 5.35-.126zM54.045 73.66c-.05-.952-1.542-.778-1.888.225-.187.54.12.783.813.642.61-.12 1.095-.51 1.078-.864zm11.965 0c0-.528-.45-.963-1-.963s-1 .433-1 .968c0 .528.45.963 1 .963s1-.435 1-.968zM54.005 62.352c7.156-1.595 6.83-5.232-1.044-11.514-3.63-2.904-3.45-2.987-6.61 3.08-1.78 3.433-2.16 7.098-.86 8.352.97.938 4.5.968 8.52.075zm-10.79-7.943c1.726-1.57 3.666-3.72 4.322-4.79l1.177-1.95-2.844-1.61c-6.155-3.47-9.844-3.92-11.555-1.39-.934 1.36-.96 2.06-.236 5.3 1.82 8.19 3.87 9.19 9.13 4.43zm21.088-3.32c.578-.56 1.044-1.75 1.044-2.64 0-2.86-2.066-8.87-3.444-10.02-1.187-.99-1.54-1.01-3.155-.21-1.978.98-6.143 5.17-7.394 7.43-.428.77-.933 1.25-1.11 1.08-.192-.19.408-1.59 1.326-3.12 2.033-3.39 3.333-7.88 2.77-9.58-.732-2.25-2.743-2.76-7.243-1.87-6.267 1.24-7.71 2.18-7.733 4.99-.012 2.24 5.244 7.21 10.964 10.37C58.454 52.01 62.312 53 64.3 51.08z"
     fill="#215b90"
     id="path4" />
  <path
     d="M24.877 96.344L.082 82.684.052 72.55c-.02-5.576.195-10.12.466-10.104.278.016 1.702 2.47 3.17 5.45 1.465 2.983 3.047 5.573 3.532 5.758.478.185.666.66.422 1.05-.333.518-.09.52.91.004 1.928-.997 4.48-.88 5.45.25.453.528 1.038.832 1.298.676.255-.154.533 1.078.615 2.74.234 4.782.458 5.56 1.813 6.265 4.72 2.45 5.63 2.9 5.938 2.88.19-.01 2.142.86 4.338 1.93 2.2 1.06 3.996 1.76 3.996 1.54 0-.22.692.03 1.54.57.843.53 3.17 1.19 5.163 1.46 3.215.44 13.964.61 16.62.26 3.468-.45 7.275-1.28 9-1.96 1.097-.43 2.326-.86 2.728-.94.4-.08 3.07-1.23 5.93-2.56 5.06-2.35 8.17-4.53 7.03-4.93-.31-.11-.66-1.36-.79-2.78-.17-1.95.02-2.58.78-2.58.69 0 1.06.82 1.2 2.73.17 2.21.45 2.74 1.5 2.74 1.11 0 1.3-.46 1.3-3.17 0-3.84-1.15-5.19-4.36-5.07-1.26.04-2.46-.08-2.66-.268-.2-.19.98-.37 2.61-.398 1.87-.044 3.27.29 3.79.895.725.842.965.83 2.03-.1.79-.69 2-.968 3.495-.8 1.62.18 2.2.023 1.978-.538-.35-.875 1.78-4.72 2.61-4.72.29 0 .526-.446.526-.987 0-.547.74-2.42 1.67-4.167.91-1.748 1.67-3.72 1.67-4.38 0-.66.2-1.4.452-1.64 1.065-1.03 1.6-14.72.747-18.98-.33-1.65-.644-3.577-.7-4.285-.05-.706-.624-1.97-1.28-2.8-.66-.837-1.38-2.5-1.62-3.7-.23-1.2-.69-2.186-1.01-2.186-.328 0-.595-.31-.595-.68 0-.386 1.5.093 3.334 1.06l3.33 1.756-.023 27.404-.02 27.42-24.7 13.537c-13.57 7.43-24.883 13.573-25.14 13.65-.26.075-11.627-6.008-25.267-13.515zm-9.526-13.48c0-.38-.42-.315-1 .147-.55.44-1 .91-1 1.03s.45.06 1-.14 1-.66 1-1.02zm-1.48-.212c2.25-1.513 1.86-2.442-.83-2.024-1.27.203-2.49.097-2.7-.235-.21-.335.81-.6 2.32-.6 2.27 0 2.71-.212 2.71-1.288 0-1.657-2.28-3.86-4-3.86-3.12 0-5.2 4.73-3.17 7.202 1.57 1.914 3.63 2.2 5.69.814zm-3.3-5.23c.48-.186 1.06-.162 1.28.05.22.215-.18.366-.87.34-.78-.03-.93-.185-.4-.39zm79.74 5.486c2-.88 2.3-3.356.54-4.35-1.11-.625-1.11-.66 0-.676 1.46-.037 1.47-.567.06-2.068-1.37-1.467-3.41-1.513-5.01-.11-1.94 1.694-1.49 3.19 1.28 4.297 2.71 1.09 2.02 1.47-.79.44-2.22-.81-2.38.75-.22 2.2 1.78 1.2 1.98 1.21 4.16.26zm-2.42-5.485c.48-.187 1.06-.163 1.28.05.23.214-.17.365-.87.34-.78-.032-.93-.186-.4-.39zm-70.8 6.337c-.14-.236 1.2-.49 3-.564 1.8-.075 3.27.097 3.27.38 0 .62-5.87.788-6.26.18zm7.31-.705c-.98-1.056-1.06-1.738-.51-4.664l.65-3.42.08 4.03c.08 3.52.25 4.02 1.38 4.02 1.01 0 1.33-.52 1.5-2.41.15-1.75.53-2.43 1.39-2.51.97-.08.98-.04.1.22-.79.23-.98.8-.71 2.11.26 1.26.01 2.12-.81 2.84-1.49 1.31-1.63 1.3-3.03-.2zm6.72-.092c-.96-.733-1.75-1.82-1.74-2.412.02-.74.28-.58.86.52 1.21 2.31 3.94 3.08 6.08 1.72 2.47-1.56 2.89-3.95 1.1-6.29-1.38-1.8-1.38-1.86-.12-1.1 2.81 1.7 2.49 6.09-.56 7.84-2.465 1.41-3.465 1.36-5.593-.25zm33.24.69c-.22-.352.08-.642.67-.642.6 0 .9.29.67.65-.22.35-.52.65-.66.65s-.44-.29-.662-.64zm3.94-.52c-.76-.617-1.58-1.98-1.83-3.037-.42-1.848-.4-1.84.73.325 2.44 4.69 8.17 3.84 8.17-1.21 0-2.67-.85-3.7-3.79-4.55-1.4-.41-1.53-.56-.52-.6.75-.03 1.98.37 2.75.89s1.59.76 1.82.54c.23-.22.426 1.36.426 3.52 0 3.8.057 3.94 1.83 4.17 1.533.22 1.644.33.644.77-.78.35-1.59.18-2.333-.46-1-.86-1.31-.87-2.432-.08-1.72 1.22-3.724 1.12-5.427-.25zm-28.39.08c.48-.184 1.05-.162 1.27.053.23.214-.17.365-.87.337-.78-.044-.93-.194-.4-.396zm4.66 0c.48-.184 1.06-.162 1.28.053.22.214-.16.365-.86.337-.78-.044-.936-.194-.41-.396zm4.96-.048c.93-.198 1.17-.933 1.17-3.613 0-1.848-.22-3.645-.5-3.99-.28-.342.02-.08.67.587.73.77 1.162 2.24 1.162 4 0 2.12.28 2.83 1.17 3.02.637.14-.19.25-1.836.25s-2.47-.11-1.826-.26zm7.048.048c.48-.184 1.053-.162 1.275.053.22.214-.17.365-.87.337-.78-.044-.933-.194-.4-.396zm4 0c.477-.184 1.053-.162 1.275.053.22.214-.17.365-.87.337-.78-.044-.934-.194-.4-.396zM42.01 80.11c0-1.59.3-2.89.666-2.89.366 0 .666 1.3.666 2.895s-.3 2.898-.664 2.898c-.367 0-.667-1.304-.667-2.897zm4.666 0c0-1.59.297-2.89.666-2.89.367 0 .67 1.3.67 2.895s-.303 2.898-.668 2.898c-.368 0-.665-1.304-.665-2.897zm8.228-2.245c0-3.01.116-4.24.256-2.737.144 1.505.144 3.967 0 5.47-.136 1.504-.25.274-.25-2.733zm4 0c0-3.01.116-4.24.256-2.737.144 1.505.144 3.967 0 5.47-.136 1.504-.25.274-.25-2.733zm4 0c0-3.01.11-4.24.253-2.737.145 1.505.145 3.967 0 5.47-.137 1.504-.25.274-.25-2.733zm-44.128.213l.093-3.11.45 2.573.45 2.58.36-2.57.36-2.57-.08 2.85c-.05 1.65-.43 2.96-.91 3.11-.6.2-.81-.61-.74-2.83zm14.162 2.09c-.544-1.386.222-3.115 1.244-2.787.46.15.838.95.838 1.77 0 1.76-1.484 2.5-2.07 1.02zm1.744-1.144c0-1.04-.2-1.228-.74-.704-.404.395-.54 1.033-.29 1.42.69 1.076 1.035.834 1.035-.72zm35.588 1.144c-.555-1.386.21-3.115 1.234-2.787.458.15.834.95.834 1.77 0 1.76-1.484 2.5-2.067 1.02zm1.734-.98c0-.333-.3-.784-.666-1.002-.367-.22-.667.053-.667.605 0 .57.3 1.01.67 1.01.37 0 .67-.27.67-.6zM66.67 77.16c0-.506.677-1.32 1.5-1.81l1.5-.89L68.35 76c-.734.846-1.405 1.66-1.5 1.805-.09.15-.17-.143-.17-.646zm-36.656-.83c0-1.04 3.543-2.61 4.8-2.123.476.185.19.36-.633.387-.82.03-2.1.63-2.83 1.338-.93.904-1.33 1.023-1.33.4zm-2.177-1.764c.453-.44.99-.638 1.195-.44.207.198-.164.572-.822.81-.95.35-1.027.276-.37-.36zM16.52 74.23c.457-.177 1.206-.177 1.666 0 .458.175.082.325-.833.325-.92 0-1.294-.146-.834-.324zm5.372-.014c.483-.185 1.058-.163 1.28.05.223.22-.173.37-.875.34-.778-.03-.933-.18-.4-.388zm21.333 0c.48-.185 1.055-.163 1.277.05.222.22-.174.37-.876.34-.777-.03-.932-.18-.4-.388zm4.29-10.3c.64-.162 1.69-.162 2.333 0 .64.162.116.294-1.17.294-1.28 0-1.805-.134-1.163-.295zm4.333-.626c.456-.178 1.207-.178 1.667 0 .455.18.08.324-.836.324-.92 0-1.29-.14-.84-.32zm4.6-1.15c1.15-.485 2.418-1.41 2.81-2.07.392-.643.72-.835.732-.417.027 1.012-3.217 3.433-4.568 3.397-.592-.01-.134-.417 1.022-.905zM41.9 56.22c1.217-1.01 3.017-2.712 4-3.787.977-1.08 1.497-1.51 1.148-.97-1.14 1.79-4.673 5.27-6.033 5.942-.733.367-.333-.165.885-1.177zm20.832-3.607c.156-.095 1.027-.748 1.945-1.452l1.667-1.28-1.273 1.45c-.69.8-1.56 1.45-1.93 1.45-.37 0-.55-.08-.4-.17zm-9.715-2.398c-.233-.368.033-.475.627-.255 1.154.427 1.365.89.405.89-.34 0-.8-.287-1.03-.64zm-.338-7.976c0-.14.52-.64 1.16-1.13 1.04-.81 1.07-.78.24.24-.87 1.07-1.43 1.41-1.43.88zM.07 30.8c-.037-2.207.234-3.092 1.046-3.39.6-.225 1.162-.33 1.244-.232.08.097-.39 1.624-1.044 3.395l-1.194 3.22-.05-2.99z"
     fill="#14497b"
     id="path6" />
  <path
     style="fill:#ffffff;fill-opacity:1;stroke:none"
     d="m 45.702441,62.008736 c -0.683296,-0.683296 -0.799175,-1.324559 -0.595668,-3.296358 0.32738,-3.172003 3.398956,-9.198636 4.789544,-9.397398 1.14262,-0.16332 7.284046,5.294535 8.411948,7.475657 1.703367,3.293949 -1.18399,5.406767 -7.96716,5.829955 -3.243504,0.202354 -3.912726,0.114082 -4.638664,-0.611856 z"
     id="path4140"
     inkscape:connector-curvature="0" />
  <path
     style="fill:#ffffff;fill-opacity:1;stroke:none"
     d="m 36.720457,56.095339 c -1.166754,-1.287312 -2.396381,-4.87966 -2.776079,-8.110298 -0.258113,-2.196135 -0.168899,-2.531706 0.97797,-3.678575 1.124691,-1.124691 1.49883,-1.231171 3.438889,-0.978701 2.544672,0.331151 9.867577,3.863236 9.867577,4.759465 0,0.810036 -4.870834,6.059493 -7.177984,7.73595 -2.195212,1.595117 -3.080862,1.65078 -4.330373,0.272159 z"
     id="path4142"
     inkscape:connector-curvature="0" />
  <path
     style="fill:#ffffff;fill-opacity:1;stroke:none"
     d="m 46.532208,44.868864 c -3.195011,-2.364028 -6.445704,-5.786921 -6.922518,-7.289227 -0.818847,-2.579958 3.327195,-4.940978 9.60548,-5.469971 2.724846,-0.22959 3.199585,-0.144063 4.078389,0.734741 1.170821,1.170821 1.261396,2.889198 0.301156,5.713517 -0.87957,2.587049 -3.638802,8.269154 -4.032846,8.304869 -0.164066,0.01487 -1.527413,-0.882397 -3.029661,-1.993929 z"
     id="path4144"
     inkscape:connector-curvature="0" />
  <path
     style="fill:#ffffff;fill-opacity:1;stroke:none"
     d="m 57.982221,50.926085 c -1.685415,-0.600833 -4.129058,-1.671889 -5.430319,-2.380124 -2.090865,-1.137992 -2.293024,-1.376854 -1.73885,-2.054543 0.344894,-0.421763 1.473446,-1.806667 2.507894,-3.077565 2.399541,-2.948017 5.467431,-5.379955 6.786816,-5.379955 1.45557,0 2.498099,1.347007 3.783672,4.888722 2.680196,7.383856 0.528311,10.298379 -5.909213,8.003465 z"
     id="path4146"
     inkscape:connector-curvature="0" />
  <path
     style="fill:#ffffff;fill-opacity:1;stroke:none"
     d="M 9.2591841,82.417568 C 8.4334251,81.96939 8.0576291,80.587552 8.2029988,78.533874 8.3417576,76.57359 8.7422294,75.942237 10.08544,75.566161 c 2.089997,-0.585163 3.90493,0.19675 4.357451,1.877284 C 14.90908,79.174741 14.304502,79.75 12.018778,79.75 c -1.372935,0 -2.1027958,0.393161 -1.975445,1.064133 0.113024,0.595481 1.542992,0.727377 2.503112,0.230879 0.804182,-0.415859 1.889996,-0.481603 1.889996,-0.114437 0,0.509649 -0.501128,1.156077 -1.16059,1.497098 -0.866012,0.447832 -3.183671,0.442001 -4.0166669,-0.0101 z m 2.9442129,-3.974282 c 0.546619,-0.209757 0.446713,-0.961892 -0.182533,-1.37419 -0.651303,-0.42675 -1.619944,-0.168078 -1.876763,0.501183 -0.2847453,0.742033 0.991105,1.282911 2.059296,0.873007 z"
     id="path4148"
     inkscape:connector-curvature="0" />
  <path
     style="fill:#ffffff;fill-opacity:1;stroke:none"
     d="m 17.414011,82.50918 c -0.30658,-0.238252 -0.458852,-0.927762 -0.643229,-2.912644 -0.266687,-2.870972 -0.09926,-3.8084 0.680196,-3.8084 0.536834,0 0.800898,0.778286 1.186073,3.495762 0.28358,2.000702 0.614551,2.513862 1.363009,2.1133 0.714161,-0.382208 1.218515,-1.513848 1.343053,-3.013463 0.232626,-2.801168 0.450072,-3.264645 1.366633,-2.912928 0.287348,0.110266 0.348941,0.700126 0.346007,3.313661 -0.002,1.748733 -0.08142,3.301889 -0.17657,3.451458 -0.273052,0.429213 -4.962757,0.663694 -5.465172,0.273254 z"
     id="path4150"
     inkscape:connector-curvature="0" />
  <path
     style="fill:#ffffff;fill-opacity:1;stroke:none"
     d="m 25.705675,82.49203 c -0.09777,-0.158197 -0.213941,-1.495326 -0.258155,-2.971398 -0.105819,-3.532732 0.04934,-3.85117 1.872589,-3.843274 0.951718,0.0041 1.443413,0.122039 1.737697,0.416732 0.391911,0.392455 0.371906,0.444729 -0.44374,1.159506 -1.029646,0.902311 -1.249216,1.327769 -1.468745,2.84598 -0.299592,2.071913 -0.959737,3.168964 -1.439646,2.392454 z"
     id="path4152"
     inkscape:connector-curvature="0" />
  <path
     style="fill:#ffffff;fill-opacity:1;stroke:none"
     d="m 32.963983,82.665365 c -1.89959,-0.677109 -3.010696,-2.757286 -2.458044,-4.601873 1.058508,-3.532986 5.800917,-3.545319 7.147787,-0.01859 0.33232,0.870167 0.347152,1.166707 0.100236,2.004081 -0.637309,2.161324 -2.781256,3.332391 -4.789979,2.616381 z m 1.993841,-1.523968 c 0.246603,-0.131978 0.616968,-0.565995 0.823033,-0.964481 0.739277,-1.429605 -0.209089,-3.223526 -1.704136,-3.223526 -0.687941,0 -0.832516,0.109065 -1.149164,0.866911 -0.401212,0.960236 -0.321259,2.64009 0.152846,3.211351 0.335633,0.404413 1.229226,0.456648 1.877421,0.109745 z"
     id="path4154"
     inkscape:connector-curvature="0" />
  <path
     style="fill:#ffffff;fill-opacity:1;stroke:none"
     d="m 40.091119,82.796388 c -0.423222,-0.267881 -0.679683,-2.089172 -0.701224,-4.979849 l -0.01701,-2.283037 3.903602,0.145874 c 4.476757,0.167292 6.355934,0.426913 6.729015,0.92966 0.849099,1.144206 0.339667,6.170625 -0.625398,6.170625 -0.372146,0 -0.685185,-1.102343 -0.685185,-2.412824 0,-1.31062 -0.729482,-3.074432 -1.452195,-3.511258 -0.736809,-0.445345 -1.106663,0.280189 -1.244023,2.440374 -0.180487,2.838428 -0.299124,3.420671 -0.730734,3.586295 -0.763409,0.292948 -1.05887,-0.432929 -1.22303,-3.004688 -0.119027,-1.864696 -0.255283,-2.569145 -0.554876,-2.868738 -0.892058,-0.892058 -2.021441,0.919478 -2.19946,3.527946 -0.152365,2.232552 -0.426462,2.748906 -1.199478,2.25962 z"
     id="path4156"
     inkscape:connector-curvature="0" />
  <path
     style="fill:#ffffff;fill-opacity:1;stroke:none"
     d="m 52.553469,82.494755 c -0.704058,-1.005184 -0.351992,-5.80583 0.491845,-6.706619 0.291088,-0.310735 0.352036,-0.310735 0.548528,0 0.298728,0.472409 0.285827,5.259799 -0.01711,6.350635 -0.27889,1.004237 -0.512324,1.085447 -1.02326,0.355984 z"
     id="path4158"
     inkscape:connector-curvature="0" />
  <path
     style="fill:#ffffff;fill-opacity:1;stroke:none"
     d="m 52.190678,74.086864 c 0,-0.46313 0.500671,-0.862288 1.081585,-0.862288 0.693205,0 0.873162,0.342469 0.418741,0.79689 -0.443924,0.443924 -1.500326,0.489972 -1.500326,0.0654 z"
     id="path4160"
     inkscape:connector-curvature="0" />
  <path
     style="fill:#ffffff;fill-opacity:1;stroke:none"
     d="m 56.45761,82.488347 c -0.296494,-0.458107 -0.38069,-8.351135 -0.09695,-9.088983 0.292199,-0.759854 0.838511,-0.831908 1.199095,-0.158152 0.292443,0.546436 0.390042,7.571975 0.121986,8.781034 -0.175349,0.790908 -0.848115,1.047072 -1.224127,0.466101 z"
     id="path4162"
     inkscape:connector-curvature="0" />
  <path
     style="fill:#ffffff;fill-opacity:1;stroke:none"
     d="m 60.453884,82.371822 c -0.32295,-0.746276 -0.416268,-7.858841 -0.115082,-8.771442 0.316784,-0.959866 0.789034,-1.082867 1.219165,-0.317541 0.336794,0.599252 0.427431,7.16846 0.118973,8.622881 -0.202286,0.953801 -0.897372,1.218696 -1.223056,0.466102 z"
     id="path4164"
     inkscape:connector-curvature="0" />
  <path
     style="fill:#ffffff;fill-opacity:1;stroke:none"
     d="m 64.425751,82.381672 c -0.279107,-0.669809 -0.419121,-5.003735 -0.189807,-5.875192 0.246916,-0.93835 0.854304,-1.428944 1.263061,-1.020187 0.357005,0.357005 0.298787,4.471923 -0.0848,5.993644 -0.30837,1.223336 -0.704037,1.58429 -0.988455,0.901735 z"
     id="path4166"
     inkscape:connector-curvature="0" />
  <path
     style="fill:#ffffff;fill-opacity:1;stroke:none"
     d="m 64.445048,74.316164 c -0.830519,-0.607291 0.100361,-1.963448 0.971266,-1.414993 0.574668,0.3619 0.650658,1.052988 0.155587,1.414993 -0.230704,0.168694 -0.484246,0.306717 -0.563426,0.306717 -0.07918,0 -0.332723,-0.138023 -0.563427,-0.306717 z"
     id="path4168"
     inkscape:connector-curvature="0" />
  <path
     style="fill:#ffffff;fill-opacity:1;stroke:none"
     d="m 69.288853,82.332655 c -1.434434,-0.874675 -2.148198,-2.611991 -1.722551,-4.192722 0.466742,-1.733351 2.696329,-3.028426 4.611939,-2.678887 1.657815,0.302499 3.301473,2.699937 2.930727,4.274755 -0.551305,2.341776 -3.835382,3.807086 -5.820115,2.596854 z m 3.008382,-1.359565 c 0.670953,-0.741394 0.905809,-1.684215 0.628695,-2.523877 -0.317735,-0.962746 -1.090504,-1.961925 -1.517363,-1.961925 -0.543431,0 -1.930379,1.376844 -2.081905,2.066739 -0.157104,0.715291 0.172891,1.78717 0.744747,2.419063 0.476901,0.526971 1.748925,0.526971 2.225826,0 z"
     id="path4170"
     inkscape:connector-curvature="0" />
  <path
     style="fill:#ffffff;fill-opacity:1;stroke:none"
     d="m 77.097972,82.138771 c -0.137863,-0.352489 -0.307647,-1.978019 -0.377297,-3.612288 l -0.126636,-2.971398 2.888362,0.0036 c 1.588599,0.002 3.015669,0.08447 3.171266,0.183345 0.386776,0.245783 0.663583,6.316552 0.310267,6.804612 -0.455138,0.628716 -1.089872,-0.509616 -1.491521,-2.674894 -0.460399,-2.481993 -0.719651,-3.007797 -1.39385,-2.826946 -0.277426,0.07442 -0.631459,0.136738 -0.786741,0.138488 -0.323197,0.0036 -0.661988,1.1734 -0.878389,3.032844 -0.168375,1.446774 -0.540521,2.563559 -0.854255,2.563559 -0.1158,0 -0.323342,-0.2884 -0.461206,-0.64089 z"
     id="path4172"
     inkscape:connector-curvature="0" />
  <path
     style="fill:#ffffff;fill-opacity:1;stroke:none"
     d="m 86.121922,82.251463 c -1.68047,-0.961399 -1.767522,-1.87634 -0.131527,-1.382395 0.508673,0.153581 1.348824,0.40697 1.867004,0.563088 1.635196,0.492654 2.452746,-0.54669 0.956551,-1.216054 -3.132952,-1.401614 -3.175283,-1.435168 -3.24963,-2.575846 -0.08844,-1.35699 0.432574,-1.877084 2.034632,-2.031022 2.246346,-0.215845 3.863534,0.488169 3.583267,1.559911 -0.159856,0.61129 -0.806792,0.621765 -1.349704,0.02185 -0.552956,-0.611009 -1.921154,-0.869454 -2.340601,-0.442125 -0.466251,0.475009 -0.02926,0.90845 1.778718,1.764285 0.846834,0.400862 1.761684,1.011048 2.032999,1.35597 0.459343,0.583959 0.468884,0.674347 0.138605,1.313035 -0.827169,1.599569 -3.466287,2.12999 -5.320314,1.069299 z"
     id="path4174"
     inkscape:connector-curvature="0" />
</svg>
