<?xml version="1.0" encoding="UTF-8" standalone="no"?>
<svg
   xmlns:dc="http://purl.org/dc/elements/1.1/"
   xmlns:cc="http://creativecommons.org/ns#"
   xmlns:rdf="http://www.w3.org/1999/02/22-rdf-syntax-ns#"
   xmlns:svg="http://www.w3.org/2000/svg"
   xmlns="http://www.w3.org/2000/svg"
   xmlns:sodipodi="http://sodipodi.sourceforge.net/DTD/sodipodi-0.dtd"
   xmlns:inkscape="http://www.inkscape.org/namespaces/inkscape"
   height="110"
   width="100"
   viewBox="0 0 100 110"
   id="svg2"
   version="1.1"
   inkscape:version="0.91 r13725"
   sodipodi:docname="geo.svg">
  <metadata
     id="metadata10">
    <rdf:RDF>
      <cc:Work
         rdf:about="">
        <dc:format>image/svg+xml</dc:format>
        <dc:type
           rdf:resource="http://purl.org/dc/dcmitype/StillImage" />
        <dc:title></dc:title>
      </cc:Work>
    </rdf:RDF>
  </metadata>
  <defs
     id="defs8" />
  <sodipodi:namedview
     pagecolor="#ffffff"
     bordercolor="#666666"
     borderopacity="1"
     objecttolerance="10"
     gridtolerance="10"
     guidetolerance="10"
     inkscape:pageopacity="0"
     inkscape:pageshadow="2"
     inkscape:window-width="720"
     inkscape:window-height="480"
     id="namedview6"
     showgrid="false"
     inkscape:zoom="2.1454545"
     inkscape:cx="50"
     inkscape:cy="55"
     inkscape:window-x="0"
     inkscape:window-y="0"
     inkscape:window-maximized="0"
     inkscape:current-layer="svg2" />
  <path
     d="M24.5 96.444L0 82.93l.173-27.794.174-27.793 24.83-13.682L50.005 0l24.823 13.683L99.65 27.367l.177 27.77.173 27.77L75.32 96.47c-13.573 7.46-25.05 13.55-25.5 13.53-.462-.022-11.844-6.12-25.333-13.55zM36.2 79.51c7.622-5.573 14.222-9.982 14.662-9.793.445.198 7.094 4.985 14.778 10.648 7.69 5.667 14.058 10.23 14.156 10.133.095-.093-.556-2.033-1.445-4.308-1.41-3.623-13.05-34.485-20.36-54.014-6.59-17.61-7.51-19.975-7.72-19.77-.22.21-2.26 5.53-7.6 19.772-1.39 3.718-5.59 14.872-9.33 24.778-3.74 9.908-7.94 21.057-9.33 24.77-1.39 3.72-2.76 7.337-3.05 8.046-.43 1.05-.35 1.16.44.585l14.8-10.832z"
     fill="#010101"
     id="path4" />
  <path
     style="fill:#ffffff;fill-opacity:1;stroke:none"
     d="m 21.194915,90.022471 c 0,-0.211754 27.496763,-73.220879 28.523195,-75.734493 l 0.655845,-1.60609 2.640312,6.966259 c 12.93863,34.137581 26.330158,69.91733 26.213479,70.037682 -0.07875,0.08123 -6.370184,-4.375865 -13.980957,-9.904661 -7.610773,-5.528796 -14.162891,-10.052354 -14.560262,-10.052354 -0.990614,0 -6.649939,3.821908 -19.024275,12.847655 -5.757035,4.199138 -10.467337,7.549836 -10.467337,7.446002 z"
     id="path4138"
     inkscape:connector-curvature="0" />
</svg>
